bioconductor-source
…
#     dplyr::filter(`_jobs_check` %in% val_of_intrst) |>

bioc_3_21_jobs_cur_pkg_ver <- bioc_3_21_jobs |>
    dplyr::mutate(xyz = stringr::str_replace_all(Version, "[.]", "")) |>
    dplyr::group_by(Package) |>
    dplyr::filter(!is.na(Version)) |>
    dplyr::filter(xyz == max(xyz, na.rm = TRUE)) |>
    dplyr::mutate(`_buildurl_jobs_job` = paste(`_buildurl`, "job", `_jobs_job`, sep = "/")) |>
    dplyr::select(Package, Version, `_published`, `_jobs_config`, `_jobs_check`,
                  `_buildurl_jobs_job`, `_jobs_time`, `_status`, `_commit`,
                  Maintainer, `_dependencies`, `_binaries`, `_sysdeps`,
                  `_failure`, BugReports, VignetteBuilder, `Config/pak/sysreqs`)
bioc_3_21_jobs_cur_pkg_ver

# A tibble: 4,287 × 17
# Groups:   Package [110]
   Package Version `_published`             `_jobs_config`       `_jobs_check`
   <chr>   <chr>   <chr>                    <chr>                <chr>        
 1 affy    1.86.0  2025-07-04T19:42:24.389Z linux-release-arm64  WARNING      
 2 affy    1.86.0  2025-07-04T19:42:24.389Z linux-release-x86_64 ERROR        
 3 affy    1.86.0  2025-07-04T19:42:24.389Z macos-release-arm64  WARNING      
 4 affy    1.86.0  2025-07-04T19:42:24.389Z macos-release-x86_64 WARNING      
 5 affy    1.86.0  2025-07-04T19:42:24.389Z source               ERROR        
 6 affy    1.86.0  2025-07-04T19:42:24.389Z wasm-release         OK           
 7 affy    1.86.0  2025-07-04T19:42:24.389Z windows-release      WARNING      
 8 affy    1.86.0  2025-08-03T07:42:38.845Z linux-release-arm64  WARNING      
 9 affy    1.86.0  2025-08-03T07:42:38.845Z linux-release-x86_64 ERROR        
10 affy    1.86.0  2025-08-03T07:42:38.845Z macos-release-arm64  WARNING      
# ℹ 4,277 more rows
# ℹ 12 more variables: `_buildurl_jobs_job` <chr>, `_jobs_time` <int>,
#   `_status` <chr>, `_commit` <df[,5]>, Maintainer <chr>,
#   `_dependencies` <list>, `_binaries` <list>, `_sysdeps` <list>,
#   `_failure` <df[,4]>, BugReports <chr>, VignetteBuilder <chr>,
#   `Config/pak/sysreqs` <chr>
…
Check values of interest

val_of_intrst <- check_values[! check_values %in% c('OK', 'NOTE', 'WARNING')]
val_of_intrst

[1] "ERROR" "FAIL" 

Failing jobs for current package version

bioc_3_21_jobs_cur_pkg_ver_failing <- bioc_3_21_jobs_cur_pkg_ver |>
     dplyr::filter(`_jobs_check` %in% val_of_intrst)
bioc_3_21_jobs_cur_pkg_ver_failing

# A tibble: 418 × 17
# Groups:   Package [58]
   Package Version `_published`             `_jobs_config`       `_jobs_check`
   <chr>   <chr>   <chr>                    <chr>                <chr>        
 1 affy    1.86.0  2025-07-04T19:42:24.389Z linux-release-x86_64 ERROR        
 2 affy    1.86.0  2025-07-04T19:42:24.389Z source               ERROR        
 3 affy    1.86.0  2025-08-03T07:42:38.845Z linux-release-x86_64 ERROR        
 4 affy    1.86.0  2025-08-03T07:42:38.845Z source               ERROR        
 5 affy    1.86.0  2025-08-07T09:42:15.422Z linux-release-x86_64 ERROR        
 6 affy    1.86.0  2025-08-07T09:42:15.422Z source               ERROR        
 7 affy    1.86.0  2025-09-06T06:47:43.868Z linux-release-x86_64 ERROR        
 8 affy    1.86.0  2025-09-06T06:47:43.868Z source               ERROR        
 9 affy    1.86.0  2025-10-06T06:47:16.050Z linux-release-x86_64 ERROR        
10 affy    1.86.0  2025-10-06T06:47:16.050Z source               ERROR        
# ℹ 408 more rows
# ℹ 12 more variables: `_buildurl_jobs_job` <chr>, `_jobs_time` <int>,
#   `_status` <chr>, `_commit` <df[,5]>, Maintainer <chr>,
#   `_dependencies` <list>, `_binaries` <list>, `_sysdeps` <list>,
#   `_failure` <df[,4]>, BugReports <chr>, VignetteBuilder <chr>,
#   `Config/pak/sysreqs` <chr>
…
Current package binaries for RELEASE_3_21 running on R 4.5.x

bioc_3_21_binaries_cur_pkg_ver <- bioc_3_21_binaries |>
    dplyr::mutate(xyz = stringr::str_replace_all(Version, "[.]", "")) |>
    dplyr::group_by(Package) |>
    dplyr::filter(!is.na(Version)) |>
    dplyr::filter(xyz == max(xyz, na.rm = TRUE)) |>
    dplyr::select(Package, Version, `_binaries_check`, `_binaries_os`,
                  `_binaries_version`, `_binaries_date`, `_binaries_arch`,
                  `_binaries_commit`, `_binaries_fileid`, `_binaries_status`,
                  `_binaries_buildurl`)
bioc_3_21_binaries_cur_pkg_ver

# A tibble: 3,446 × 11
# Groups:   Package [110]
   Package Version `_binaries_check` `_binaries_os` `_binaries_version`
   <chr>   <chr>   <chr>             <chr>          <chr>              
 1 affy    1.86.0  WARNING           linux          1.86.0             
 2 affy    1.86.0  <NA>              linux          1.86.0             
 3 affy    1.86.0  WARNING           mac            1.86.0             
 4 affy    1.86.0  WARNING           mac            1.86.0             
 5 affy    1.86.0  <NA>              wasm           1.86.0             
 6 affy    1.86.0  WARNING           win            1.86.0             
 7 affy    1.86.0  WARNING           linux          1.86.0             
 8 affy    1.86.0  ERROR             linux          1.86.0             
 9 affy    1.86.0  WARNING           mac            1.86.0             
10 affy    1.86.0  WARNING           mac            1.86.0             
# ℹ 3,436 more rows
# ℹ 6 more variables: `_binaries_date` <chr>, `_binaries_arch` <chr>,
#   `_binaries_commit` <chr>, `_binaries_fileid` <chr>,
#   `_binaries_status` <chr>, `_binaries_buildurl` <chr>

Failing binaries for current package version

bioc_3_21_binaries_cur_pkg_ver_failing <- bioc_3_21_binaries_cur_pkg_ver |>
    dplyr::filter(`_binaries_check` %in% val_of_intrst)
bioc_3_21_binaries_cur_pkg_ver_failing

# A tibble: 229 × 11
# Groups:   Package [41]
   Package  Version `_binaries_check` `_binaries_os` `_binaries_version`
   <chr>    <chr>   <chr>             <chr>          <chr>              
 1 affy     1.86.0  ERROR             linux          1.86.0             
 2 affy     1.86.0  ERROR             linux          1.86.0             
 3 affy     1.86.0  ERROR             linux          1.86.0             
 4 affy     1.86.0  ERROR             linux          1.86.0             
 5 affy     1.86.0  ERROR             linux          1.86.0             
 6 affy     1.86.0  ERROR             linux          1.86.0             
 7 annotate 1.86.1  ERROR             linux          1.86.1             
 8 annotate 1.86.1  ERROR             linux          1.86.1             
 9 annotate 1.86.1  ERROR             mac            1.86.1             
10 annotate 1.86.1  ERROR             win            1.86.1             
# ℹ 219 more rows
# ℹ 6 more variables: `_binaries_date` <chr>, `_binaries_arch` <chr>,
#   `_binaries_commit` <chr>, `_binaries_fileid` <chr>,
#   `_binaries_status` <chr>, `_binaries_buildurl` <chr>
…
