bioc.r-universe.dev windows devel
…
If any of the above RemoteUrls are not from https://github.com/bioc then they were added via https://github.com/r-universe/bioc/blob/master/.remotes.json.

We’ll need to check why some packages aren’t in bioc.r-universe.dev; however, we already know scafari isn’t there because it has files > 100MB in its git history.

Code

only_bbs_info <- bbs_info |>
  dplyr::filter(Package %in% only_bbs) |>
  dplyr::mutate(Deprecated = PackageStatus) |>
  dplyr::select(Package, Deprecated)

  only_bbs_info

# A tibble: 32 × 2
   Package                Deprecated
   <chr>                  <chr>     
 1 DEP                    Deprecated
 2 interactiveDisplay     Deprecated
 3 interactiveDisplayBase Deprecated
 4 rRDP                   Deprecated
 5 scafari                <NA>      
 6 Streamer               Deprecated
 7 CINdex                 Deprecated
 8 gpuMagic               Deprecated
 9 rGADEM                 Deprecated
10 SARC                   Deprecated
# ℹ 22 more rows
…
